<svg 
 xmlns="http://www.w3.org/2000/svg"
 xmlns:xlink="http://www.w3.org/1999/xlink"
 width="201px" height="208px">
<path fill-rule="evenodd"  fill="rgb(199, 215, 255)"
 d="M141.000,206.000 L117.000,205.415 L117.000,161.000 L84.000,161.000 L84.000,204.610 L59.000,204.000 L60.000,97.000 L101.000,63.000 L142.000,100.000 L141.000,206.000 Z"/>
<path fill-rule="evenodd"  fill="rgb(2, 14, 54)"
 d="M188.083,113.026 L143.624,113.026 L143.624,103.917 L145.833,105.668 C147.270,106.836 149.398,106.673 150.618,105.275 L162.763,91.401 C163.997,90.003 163.888,87.858 162.492,86.622 C162.465,86.595 162.438,86.568 162.411,86.555 L103.936,36.435 L103.936,26.973 L130.707,26.973 C132.604,26.973 134.136,25.426 134.136,23.525 C134.136,22.779 133.878,22.046 133.431,21.462 L127.372,13.480 L133.431,5.498 C134.570,3.991 134.285,1.846 132.794,0.705 C132.184,0.244 131.466,-0.000 130.707,-0.000 L100.588,-0.000 C98.677,-0.000 97.105,1.520 97.091,3.420 L97.091,35.566 L37.668,86.541 C36.231,87.776 36.095,89.948 37.329,91.387 L49.243,105.261 L49.257,105.275 C49.853,106.021 50.761,106.442 51.710,106.442 C52.117,106.442 53.215,106.293 53.486,105.981 L55.966,102.261 L55.966,113.026 L12.944,113.026 C5.814,113.026 0.027,118.782 0.013,125.923 C0.013,125.950 0.013,125.963 0.013,125.977 L0.013,204.604 C-0.000,206.464 1.491,207.971 3.347,207.998 L3.347,207.998 L197.653,207.998 C199.496,207.998 201.001,206.505 201.001,204.645 C201.001,204.618 201.001,204.604 201.001,204.590 L201.001,125.977 C201.001,118.850 195.267,113.040 188.137,113.026 C188.110,113.026 188.097,113.026 188.083,113.026 L188.083,113.026 ZM112.869,201.142 L87.196,201.142 L87.196,164.422 L112.869,164.422 L112.869,201.142 ZM116.542,157.553 L83.618,157.553 L83.604,157.553 C81.842,157.525 80.392,158.910 80.351,160.675 C80.351,160.729 80.351,160.770 80.351,160.811 L80.351,160.838 L80.351,201.142 L62.812,201.142 L62.812,97.958 L99.897,66.368 L136.779,97.917 L136.779,201.142 L119.714,201.142 L119.714,160.811 L119.714,160.797 C119.781,159.073 118.440,157.621 116.732,157.566 C116.664,157.553 116.610,157.553 116.542,157.553 L116.542,157.553 ZM103.936,6.869 L123.794,6.869 L120.337,11.403 C119.402,12.638 119.402,14.335 120.337,15.570 L123.780,20.118 L103.936,20.118 L103.936,6.869 ZM44.770,89.514 L100.087,42.096 L155.362,89.500 L147.758,98.202 L102.310,59.241 C101.022,58.142 99.138,58.142 97.850,59.241 L57.403,93.749 L52.212,98.188 L44.770,89.514 ZM6.872,125.990 C6.831,122.651 9.515,119.909 12.849,119.882 C12.876,119.882 12.903,119.882 12.944,119.882 L55.966,119.882 L55.966,201.142 L6.872,201.142 L6.872,125.990 ZM194.156,201.142 L143.624,201.142 L143.624,119.882 L188.083,119.882 C191.418,119.882 194.128,122.556 194.156,125.895 C194.156,125.923 194.156,125.950 194.156,125.977 L194.156,201.142 ZM116.515,128.352 L83.415,128.352 C81.530,128.352 79.999,129.886 79.999,131.773 C79.999,133.674 81.530,135.208 83.415,135.208 L116.515,135.208 C118.412,135.208 119.944,133.674 119.944,131.773 C119.944,129.886 118.412,128.352 116.515,128.352 L116.515,128.352 ZM21.606,135.941 C19.721,135.941 18.190,137.475 18.190,139.362 L18.190,147.602 C18.190,149.503 19.721,151.037 21.606,151.037 C23.503,151.037 25.035,149.503 25.035,147.602 L25.035,139.362 C25.035,137.475 23.503,135.941 21.606,135.941 L21.606,135.941 ZM41.219,135.941 C39.321,135.941 37.790,137.475 37.790,139.362 L37.790,147.602 C37.790,149.503 39.321,151.037 41.219,151.037 C43.117,151.037 44.648,149.503 44.648,147.602 L44.648,139.362 C44.648,137.475 43.117,135.941 41.219,135.941 L41.219,135.941 ZM21.606,168.005 C19.721,168.005 18.190,169.539 18.190,171.440 L18.190,179.666 C18.190,181.567 19.721,183.101 21.606,183.101 C23.503,183.101 25.035,181.567 25.035,179.666 L25.035,171.440 C25.035,169.539 23.503,168.005 21.606,168.005 L21.606,168.005 ZM41.219,168.005 C39.321,168.005 37.790,169.539 37.790,171.440 L37.790,179.666 C37.790,181.567 39.321,183.101 41.219,183.101 C43.117,183.101 44.648,181.567 44.648,179.666 L44.648,171.440 C44.648,169.539 43.103,168.005 41.219,168.005 L41.219,168.005 ZM178.934,168.005 C177.036,168.005 175.504,169.539 175.504,171.440 L175.504,179.666 C175.504,181.567 177.036,183.101 178.934,183.101 C180.831,183.101 182.363,181.567 182.363,179.666 L182.363,171.440 C182.363,169.539 180.831,168.005 178.934,168.005 L178.934,168.005 ZM159.808,168.005 C157.911,168.005 156.379,169.539 156.379,171.440 L156.379,179.666 C156.379,181.567 157.911,183.101 159.808,183.101 C161.692,183.101 163.238,181.567 163.238,179.666 L163.238,171.440 C163.238,169.539 161.692,168.005 159.808,168.005 L159.808,168.005 ZM178.934,135.941 C177.036,135.941 175.504,137.475 175.504,139.362 L175.504,147.602 C175.504,149.503 177.036,151.037 178.934,151.037 C180.831,151.037 182.363,149.503 182.363,147.602 L182.363,139.362 C182.363,137.475 180.831,135.941 178.934,135.941 L178.934,135.941 ZM159.808,135.941 C157.911,135.941 156.379,137.475 156.379,139.362 L156.379,147.602 C156.379,149.503 157.911,151.037 159.808,151.037 C161.692,151.037 163.238,149.503 163.238,147.602 L163.238,139.362 C163.238,137.475 161.692,135.941 159.808,135.941 L159.808,135.941 Z"/>
</svg>